[
  {
    "type": "anon_fndef",
    "named": true,
    "fields": {},
    "children": {
      "multiple": true,
      "required": true,
      "types": [
        {
          "type": "block",
          "named": true
        },
        {
          "type": "fn",
          "named": true
        },
        {
          "type": "parameter_list",
          "named": true
        },
        {
          "type": "typ",
          "named": true
        },
        {
          "type": "typ_fn",
          "named": true
        },
        {
          "type": "typ_tuple",
          "named": true
        },
        {
          "type": "type_arguments",
          "named": true
        }
      ]
    }
  },
  {
    "type": "arguments",
    "named": true,
    "fields": {},
    "children": {
      "multiple": true,
      "required": false,
      "types": [
        {
          "type": "anon_fndef",
          "named": true
        },
        {
          "type": "array_expression",
          "named": true
        },
        {
          "type": "binary_expression",
          "named": true
        },
        {
          "type": "block",
          "named": true
        },
        {
          "type": "bool_literal",
          "named": true
        },
        {
          "type": "call_expression",
          "named": true
        },
        {
          "type": "compound_assignment_expression",
          "named": true
        },
        {
          "type": "eta_ident",
          "named": true
        },
        {
          "type": "float_literal",
          "named": true
        },
        {
          "type": "fn_placeholder_ident",
          "named": true
        },
        {
          "type": "ident",
          "named": true
        },
        {
          "type": "if_expression",
          "named": true
        },
        {
          "type": "ignored_ident",
          "named": true
        },
        {
          "type": "index_expr",
          "named": true
        },
        {
          "type": "int_literal",
          "named": true
        },
        {
          "type": "jsx_self_close_tag",
          "named": true
        },
        {
          "type": "jsx_tag",
          "named": true
        },
        {
          "type": "match_exp",
          "named": true
        },
        {
          "type": "mod_var",
          "named": true
        },
        {
          "type": "parenthesized_expression",
          "named": true
        },
        {
          "type": "prop_expr",
          "named": true
        },
        {
          "type": "range_expression",
          "named": true
        },
        {
          "type": "record",
          "named": true
        },
        {
          "type": "regex_literal",
          "named": true
        },
        {
          "type": "self",
          "named": true
        },
        {
          "type": "string_literal",
          "named": true
        },
        {
          "type": "tag",
          "named": true
        },
        {
          "type": "tuple_expression",
          "named": true
        },
        {
          "type": "unary_expression",
          "named": true
        }
      ]
    }
  },
  {
    "type": "array_destruct",
    "named": true,
    "fields": {},
    "children": {
      "multiple": true,
      "required": false,
      "types": [
        {
          "type": "eta_ident",
          "named": true
        },
        {
          "type": "fn_placeholder_ident",
          "named": true
        },
        {
          "type": "ident",
          "named": true
        },
        {
          "type": "ignored_ident",
          "named": true
        }
      ]
    }
  },
  {
    "type": "array_expression",
    "named": true,
    "fields": {},
    "children": {
      "multiple": true,
      "required": false,
      "types": [
        {
          "type": "anon_fndef",
          "named": true
        },
        {
          "type": "array_expression",
          "named": true
        },
        {
          "type": "binary_expression",
          "named": true
        },
        {
          "type": "block",
          "named": true
        },
        {
          "type": "bool_literal",
          "named": true
        },
        {
          "type": "call_expression",
          "named": true
        },
        {
          "type": "compound_assignment_expression",
          "named": true
        },
        {
          "type": "eta_ident",
          "named": true
        },
        {
          "type": "float_literal",
          "named": true
        },
        {
          "type": "fn_placeholder_ident",
          "named": true
        },
        {
          "type": "ident",
          "named": true
        },
        {
          "type": "if_expression",
          "named": true
        },
        {
          "type": "ignored_ident",
          "named": true
        },
        {
          "type": "index_expr",
          "named": true
        },
        {
          "type": "int_literal",
          "named": true
        },
        {
          "type": "jsx_self_close_tag",
          "named": true
        },
        {
          "type": "jsx_tag",
          "named": true
        },
        {
          "type": "match_exp",
          "named": true
        },
        {
          "type": "mod_var",
          "named": true
        },
        {
          "type": "parenthesized_expression",
          "named": true
        },
        {
          "type": "prop_expr",
          "named": true
        },
        {
          "type": "range_expression",
          "named": true
        },
        {
          "type": "record",
          "named": true
        },
        {
          "type": "regex_literal",
          "named": true
        },
        {
          "type": "self",
          "named": true
        },
        {
          "type": "string_literal",
          "named": true
        },
        {
          "type": "tag",
          "named": true
        },
        {
          "type": "tuple_expression",
          "named": true
        },
        {
          "type": "unary_expression",
          "named": true
        }
      ]
    }
  },
  {
    "type": "assignment_stmt",
    "named": true,
    "fields": {},
    "children": {
      "multiple": true,
      "required": true,
      "types": [
        {
          "type": "anon_fndef",
          "named": true
        },
        {
          "type": "array_expression",
          "named": true
        },
        {
          "type": "binary_expression",
          "named": true
        },
        {
          "type": "block",
          "named": true
        },
        {
          "type": "bool_literal",
          "named": true
        },
        {
          "type": "call_expression",
          "named": true
        },
        {
          "type": "compound_assignment_expression",
          "named": true
        },
        {
          "type": "eta_ident",
          "named": true
        },
        {
          "type": "float_literal",
          "named": true
        },
        {
          "type": "fn_placeholder_ident",
          "named": true
        },
        {
          "type": "ident",
          "named": true
        },
        {
          "type": "if_expression",
          "named": true
        },
        {
          "type": "ignored_ident",
          "named": true
        },
        {
          "type": "index_expr",
          "named": true
        },
        {
          "type": "int_literal",
          "named": true
        },
        {
          "type": "jsx_self_close_tag",
          "named": true
        },
        {
          "type": "jsx_tag",
          "named": true
        },
        {
          "type": "match_exp",
          "named": true
        },
        {
          "type": "mod_var",
          "named": true
        },
        {
          "type": "parenthesized_expression",
          "named": true
        },
        {
          "type": "prop_expr",
          "named": true
        },
        {
          "type": "range_expression",
          "named": true
        },
        {
          "type": "record",
          "named": true
        },
        {
          "type": "regex_literal",
          "named": true
        },
        {
          "type": "self",
          "named": true
        },
        {
          "type": "string_literal",
          "named": true
        },
        {
          "type": "tag",
          "named": true
        },
        {
          "type": "tuple_expression",
          "named": true
        },
        {
          "type": "unary_expression",
          "named": true
        }
      ]
    }
  },
  {
    "type": "binary_expression",
    "named": true,
    "fields": {
      "left": {
        "multiple": false,
        "required": true,
        "types": [
          {
            "type": "anon_fndef",
            "named": true
          },
          {
            "type": "array_expression",
            "named": true
          },
          {
            "type": "binary_expression",
            "named": true
          },
          {
            "type": "block",
            "named": true
          },
          {
            "type": "bool_literal",
            "named": true
          },
          {
            "type": "call_expression",
            "named": true
          },
          {
            "type": "compound_assignment_expression",
            "named": true
          },
          {
            "type": "eta_ident",
            "named": true
          },
          {
            "type": "float_literal",
            "named": true
          },
          {
            "type": "fn_placeholder_ident",
            "named": true
          },
          {
            "type": "ident",
            "named": true
          },
          {
            "type": "if_expression",
            "named": true
          },
          {
            "type": "ignored_ident",
            "named": true
          },
          {
            "type": "index_expr",
            "named": true
          },
          {
            "type": "int_literal",
            "named": true
          },
          {
            "type": "jsx_self_close_tag",
            "named": true
          },
          {
            "type": "jsx_tag",
            "named": true
          },
          {
            "type": "match_exp",
            "named": true
          },
          {
            "type": "mod_var",
            "named": true
          },
          {
            "type": "parenthesized_expression",
            "named": true
          },
          {
            "type": "prop_expr",
            "named": true
          },
          {
            "type": "range_expression",
            "named": true
          },
          {
            "type": "record",
            "named": true
          },
          {
            "type": "regex_literal",
            "named": true
          },
          {
            "type": "self",
            "named": true
          },
          {
            "type": "string_literal",
            "named": true
          },
          {
            "type": "tag",
            "named": true
          },
          {
            "type": "tuple_expression",
            "named": true
          },
          {
            "type": "unary_expression",
            "named": true
          }
        ]
      },
      "operator": {
        "multiple": false,
        "required": true,
        "types": [
          {
            "type": "!=",
            "named": false
          },
          {
            "type": "%",
            "named": false
          },
          {
            "type": "&",
            "named": false
          },
          {
            "type": "&&",
            "named": false
          },
          {
            "type": "*",
            "named": false
          },
          {
            "type": "*.",
            "named": false
          },
          {
            "type": "+",
            "named": false
          },
          {
            "type": "++",
            "named": false
          },
          {
            "type": "+.",
            "named": false
          },
          {
            "type": "-",
            "named": false
          },
          {
            "type": "-.",
            "named": false
          },
          {
            "type": "/",
            "named": false
          },
          {
            "type": "/.",
            "named": false
          },
          {
            "type": "<",
            "named": false
          },
          {
            "type": "<<",
            "named": false
          },
          {
            "type": "<=",
            "named": false
          },
          {
            "type": "==",
            "named": false
          },
          {
            "type": ">",
            "named": false
          },
          {
            "type": ">=",
            "named": false
          },
          {
            "type": ">>",
            "named": false
          },
          {
            "type": "??",
            "named": false
          },
          {
            "type": "^",
            "named": false
          },
          {
            "type": "|",
            "named": false
          },
          {
            "type": "||",
            "named": false
          }
        ]
      },
      "right": {
        "multiple": false,
        "required": true,
        "types": [
          {
            "type": "anon_fndef",
            "named": true
          },
          {
            "type": "array_expression",
            "named": true
          },
          {
            "type": "binary_expression",
            "named": true
          },
          {
            "type": "block",
            "named": true
          },
          {
            "type": "bool_literal",
            "named": true
          },
          {
            "type": "call_expression",
            "named": true
          },
          {
            "type": "compound_assignment_expression",
            "named": true
          },
          {
            "type": "eta_ident",
            "named": true
          },
          {
            "type": "float_literal",
            "named": true
          },
          {
            "type": "fn_placeholder_ident",
            "named": true
          },
          {
            "type": "ident",
            "named": true
          },
          {
            "type": "if_expression",
            "named": true
          },
          {
            "type": "ignored_ident",
            "named": true
          },
          {
            "type": "index_expr",
            "named": true
          },
          {
            "type": "int_literal",
            "named": true
          },
          {
            "type": "jsx_self_close_tag",
            "named": true
          },
          {
            "type": "jsx_tag",
            "named": true
          },
          {
            "type": "match_exp",
            "named": true
          },
          {
            "type": "mod_var",
            "named": true
          },
          {
            "type": "parenthesized_expression",
            "named": true
          },
          {
            "type": "prop_expr",
            "named": true
          },
          {
            "type": "range_expression",
            "named": true
          },
          {
            "type": "record",
            "named": true
          },
          {
            "type": "regex_literal",
            "named": true
          },
          {
            "type": "self",
            "named": true
          },
          {
            "type": "string_literal",
            "named": true
          },
          {
            "type": "tag",
            "named": true
          },
          {
            "type": "tuple_expression",
            "named": true
          },
          {
            "type": "unary_expression",
            "named": true
          }
        ]
      }
    }
  },
  {
    "type": "block",
    "named": true,
    "fields": {},
    "children": {
      "multiple": true,
      "required": false,
      "types": [
        {
          "type": "anon_fndef",
          "named": true
        },
        {
          "type": "array_expression",
          "named": true
        },
        {
          "type": "assignment_stmt",
          "named": true
        },
        {
          "type": "binary_expression",
          "named": true
        },
        {
          "type": "block",
          "named": true
        },
        {
          "type": "bool_literal",
          "named": true
        },
        {
          "type": "break",
          "named": true
        },
        {
          "type": "call_expression",
          "named": true
        },
        {
          "type": "compound_assignment_expression",
          "named": true
        },
        {
          "type": "continue",
          "named": true
        },
        {
          "type": "eta_ident",
          "named": true
        },
        {
          "type": "float_literal",
          "named": true
        },
        {
          "type": "fn_placeholder_ident",
          "named": true
        },
        {
          "type": "for_loop",
          "named": true
        },
        {
          "type": "ident",
          "named": true
        },
        {
          "type": "if_expression",
          "named": true
        },
        {
          "type": "ignored_ident",
          "named": true
        },
        {
          "type": "index_expr",
          "named": true
        },
        {
          "type": "int_literal",
          "named": true
        },
        {
          "type": "jsx_self_close_tag",
          "named": true
        },
        {
          "type": "jsx_tag",
          "named": true
        },
        {
          "type": "loop",
          "named": true
        },
        {
          "type": "match_exp",
          "named": true
        },
        {
          "type": "mod_var",
          "named": true
        },
        {
          "type": "parenthesized_expression",
          "named": true
        },
        {
          "type": "prop_expr",
          "named": true
        },
        {
          "type": "range_expression",
          "named": true
        },
        {
          "type": "record",
          "named": true
        },
        {
          "type": "regex_literal",
          "named": true
        },
        {
          "type": "return_statement",
          "named": true
        },
        {
          "type": "self",
          "named": true
        },
        {
          "type": "string_literal",
          "named": true
        },
        {
          "type": "tag",
          "named": true
        },
        {
          "type": "tuple_expression",
          "named": true
        },
        {
          "type": "unary_expression",
          "named": true
        },
        {
          "type": "var_definition",
          "named": true
        },
        {
          "type": "while",
          "named": true
        }
      ]
    }
  },
  {
    "type": "bool_literal",
    "named": true,
    "fields": {}
  },
  {
    "type": "call_expression",
    "named": true,
    "fields": {
      "arguments": {
        "multiple": false,
        "required": true,
        "types": [
          {
            "type": "arguments",
            "named": true
          }
        ]
      },
      "function": {
        "multiple": false,
        "required": true,
        "types": [
          {
            "type": "anon_fndef",
            "named": true
          },
          {
            "type": "array_expression",
            "named": true
          },
          {
            "type": "binary_expression",
            "named": true
          },
          {
            "type": "block",
            "named": true
          },
          {
            "type": "bool_literal",
            "named": true
          },
          {
            "type": "call_expression",
            "named": true
          },
          {
            "type": "compound_assignment_expression",
            "named": true
          },
          {
            "type": "eta_ident",
            "named": true
          },
          {
            "type": "float_literal",
            "named": true
          },
          {
            "type": "fn_placeholder_ident",
            "named": true
          },
          {
            "type": "ident",
            "named": true
          },
          {
            "type": "if_expression",
            "named": true
          },
          {
            "type": "ignored_ident",
            "named": true
          },
          {
            "type": "index_expr",
            "named": true
          },
          {
            "type": "int_literal",
            "named": true
          },
          {
            "type": "jsx_self_close_tag",
            "named": true
          },
          {
            "type": "jsx_tag",
            "named": true
          },
          {
            "type": "match_exp",
            "named": true
          },
          {
            "type": "mod_var",
            "named": true
          },
          {
            "type": "parenthesized_expression",
            "named": true
          },
          {
            "type": "prop_expr",
            "named": true
          },
          {
            "type": "range_expression",
            "named": true
          },
          {
            "type": "record",
            "named": true
          },
          {
            "type": "regex_literal",
            "named": true
          },
          {
            "type": "self",
            "named": true
          },
          {
            "type": "string_literal",
            "named": true
          },
          {
            "type": "tag",
            "named": true
          },
          {
            "type": "tuple_expression",
            "named": true
          },
          {
            "type": "unary_expression",
            "named": true
          }
        ]
      }
    }
  },
  {
    "type": "comp_statement",
    "named": true,
    "fields": {},
    "children": {
      "multiple": true,
      "required": true,
      "types": [
        {
          "type": "block",
          "named": true
        },
        {
          "type": "comp",
          "named": true
        },
        {
          "type": "parameter_list",
          "named": true
        }
      ]
    }
  },
  {
    "type": "compound_assignment_expression",
    "named": true,
    "fields": {
      "left": {
        "multiple": false,
        "required": true,
        "types": [
          {
            "type": "eta_ident",
            "named": true
          },
          {
            "type": "fn_placeholder_ident",
            "named": true
          },
          {
            "type": "ident",
            "named": true
          },
          {
            "type": "ignored_ident",
            "named": true
          },
          {
            "type": "index_expr",
            "named": true
          },
          {
            "type": "prop_expr",
            "named": true
          }
        ]
      },
      "operator": {
        "multiple": false,
        "required": true,
        "types": [
          {
            "type": "%=",
            "named": false
          },
          {
            "type": "&=",
            "named": false
          },
          {
            "type": "*=",
            "named": false
          },
          {
            "type": "+=",
            "named": false
          },
          {
            "type": "-=",
            "named": false
          },
          {
            "type": "/=",
            "named": false
          },
          {
            "type": "<<=",
            "named": false
          },
          {
            "type": ">>=",
            "named": false
          },
          {
            "type": "^=",
            "named": false
          },
          {
            "type": "|=",
            "named": false
          }
        ]
      },
      "right": {
        "multiple": false,
        "required": true,
        "types": [
          {
            "type": "anon_fndef",
            "named": true
          },
          {
            "type": "array_expression",
            "named": true
          },
          {
            "type": "binary_expression",
            "named": true
          },
          {
            "type": "block",
            "named": true
          },
          {
            "type": "bool_literal",
            "named": true
          },
          {
            "type": "call_expression",
            "named": true
          },
          {
            "type": "compound_assignment_expression",
            "named": true
          },
          {
            "type": "eta_ident",
            "named": true
          },
          {
            "type": "float_literal",
            "named": true
          },
          {
            "type": "fn_placeholder_ident",
            "named": true
          },
          {
            "type": "ident",
            "named": true
          },
          {
            "type": "if_expression",
            "named": true
          },
          {
            "type": "ignored_ident",
            "named": true
          },
          {
            "type": "index_expr",
            "named": true
          },
          {
            "type": "int_literal",
            "named": true
          },
          {
            "type": "jsx_self_close_tag",
            "named": true
          },
          {
            "type": "jsx_tag",
            "named": true
          },
          {
            "type": "match_exp",
            "named": true
          },
          {
            "type": "mod_var",
            "named": true
          },
          {
            "type": "parenthesized_expression",
            "named": true
          },
          {
            "type": "prop_expr",
            "named": true
          },
          {
            "type": "range_expression",
            "named": true
          },
          {
            "type": "record",
            "named": true
          },
          {
            "type": "regex_literal",
            "named": true
          },
          {
            "type": "self",
            "named": true
          },
          {
            "type": "string_literal",
            "named": true
          },
          {
            "type": "tag",
            "named": true
          },
          {
            "type": "tuple_expression",
            "named": true
          },
          {
            "type": "unary_expression",
            "named": true
          }
        ]
      }
    }
  },
  {
    "type": "else_clause",
    "named": true,
    "fields": {},
    "children": {
      "multiple": true,
      "required": true,
      "types": [
        {
          "type": "block",
          "named": true
        },
        {
          "type": "else",
          "named": true
        },
        {
          "type": "if_expression",
          "named": true
        }
      ]
    }
  },
  {
    "type": "field",
    "named": true,
    "fields": {},
    "children": {
      "multiple": true,
      "required": true,
      "types": [
        {
          "type": "anon_fndef",
          "named": true
        },
        {
          "type": "array_expression",
          "named": true
        },
        {
          "type": "binary_expression",
          "named": true
        },
        {
          "type": "block",
          "named": true
        },
        {
          "type": "bool_literal",
          "named": true
        },
        {
          "type": "call_expression",
          "named": true
        },
        {
          "type": "compound_assignment_expression",
          "named": true
        },
        {
          "type": "eta_ident",
          "named": true
        },
        {
          "type": "float_literal",
          "named": true
        },
        {
          "type": "fn_placeholder_ident",
          "named": true
        },
        {
          "type": "ident",
          "named": true
        },
        {
          "type": "if_expression",
          "named": true
        },
        {
          "type": "ignored_ident",
          "named": true
        },
        {
          "type": "index_expr",
          "named": true
        },
        {
          "type": "int_literal",
          "named": true
        },
        {
          "type": "jsx_self_close_tag",
          "named": true
        },
        {
          "type": "jsx_tag",
          "named": true
        },
        {
          "type": "match_exp",
          "named": true
        },
        {
          "type": "mod_var",
          "named": true
        },
        {
          "type": "parenthesized_expression",
          "named": true
        },
        {
          "type": "prop_expr",
          "named": true
        },
        {
          "type": "range_expression",
          "named": true
        },
        {
          "type": "record",
          "named": true
        },
        {
          "type": "regex_literal",
          "named": true
        },
        {
          "type": "self",
          "named": true
        },
        {
          "type": "string_literal",
          "named": true
        },
        {
          "type": "tag",
          "named": true
        },
        {
          "type": "tuple_expression",
          "named": true
        },
        {
          "type": "unary_expression",
          "named": true
        }
      ]
    }
  },
  {
    "type": "field_pun",
    "named": true,
    "fields": {},
    "children": {
      "multiple": false,
      "required": true,
      "types": [
        {
          "type": "eta_ident",
          "named": true
        },
        {
          "type": "fn_placeholder_ident",
          "named": true
        },
        {
          "type": "ident",
          "named": true
        },
        {
          "type": "ignored_ident",
          "named": true
        }
      ]
    }
  },
  {
    "type": "fn_name",
    "named": true,
    "fields": {},
    "children": {
      "multiple": false,
      "required": true,
      "types": [
        {
          "type": "eta_ident",
          "named": true
        },
        {
          "type": "fn_placeholder_ident",
          "named": true
        },
        {
          "type": "ident",
          "named": true
        },
        {
          "type": "ignored_ident",
          "named": true
        }
      ]
    }
  },
  {
    "type": "for_loop",
    "named": true,
    "fields": {},
    "children": {
      "multiple": true,
      "required": true,
      "types": [
        {
          "type": "anon_fndef",
          "named": true
        },
        {
          "type": "array_destruct",
          "named": true
        },
        {
          "type": "array_expression",
          "named": true
        },
        {
          "type": "binary_expression",
          "named": true
        },
        {
          "type": "block",
          "named": true
        },
        {
          "type": "bool_literal",
          "named": true
        },
        {
          "type": "call_expression",
          "named": true
        },
        {
          "type": "compound_assignment_expression",
          "named": true
        },
        {
          "type": "eta_ident",
          "named": true
        },
        {
          "type": "float_literal",
          "named": true
        },
        {
          "type": "fn_placeholder_ident",
          "named": true
        },
        {
          "type": "for",
          "named": true
        },
        {
          "type": "ident",
          "named": true
        },
        {
          "type": "if_expression",
          "named": true
        },
        {
          "type": "ignored_ident",
          "named": true
        },
        {
          "type": "in",
          "named": true
        },
        {
          "type": "index_expr",
          "named": true
        },
        {
          "type": "int_literal",
          "named": true
        },
        {
          "type": "jsx_self_close_tag",
          "named": true
        },
        {
          "type": "jsx_tag",
          "named": true
        },
        {
          "type": "match_exp",
          "named": true
        },
        {
          "type": "mod_var",
          "named": true
        },
        {
          "type": "parenthesized_expression",
          "named": true
        },
        {
          "type": "prop_expr",
          "named": true
        },
        {
          "type": "range_expression",
          "named": true
        },
        {
          "type": "record",
          "named": true
        },
        {
          "type": "record_destruct",
          "named": true
        },
        {
          "type": "regex_literal",
          "named": true
        },
        {
          "type": "self",
          "named": true
        },
        {
          "type": "string_literal",
          "named": true
        },
        {
          "type": "tag",
          "named": true
        },
        {
          "type": "tuple_destruct",
          "named": true
        },
        {
          "type": "tuple_expression",
          "named": true
        },
        {
          "type": "unary_expression",
          "named": true
        }
      ]
    }
  },
  {
    "type": "if_expression",
    "named": true,
    "fields": {
      "alternative": {
        "multiple": false,
        "required": false,
        "types": [
          {
            "type": "else_clause",
            "named": true
          }
        ]
      },
      "condition": {
        "multiple": false,
        "required": true,
        "types": [
          {
            "type": "anon_fndef",
            "named": true
          },
          {
            "type": "array_expression",
            "named": true
          },
          {
            "type": "binary_expression",
            "named": true
          },
          {
            "type": "block",
            "named": true
          },
          {
            "type": "bool_literal",
            "named": true
          },
          {
            "type": "call_expression",
            "named": true
          },
          {
            "type": "compound_assignment_expression",
            "named": true
          },
          {
            "type": "eta_ident",
            "named": true
          },
          {
            "type": "float_literal",
            "named": true
          },
          {
            "type": "fn_placeholder_ident",
            "named": true
          },
          {
            "type": "ident",
            "named": true
          },
          {
            "type": "if_expression",
            "named": true
          },
          {
            "type": "ignored_ident",
            "named": true
          },
          {
            "type": "index_expr",
            "named": true
          },
          {
            "type": "int_literal",
            "named": true
          },
          {
            "type": "jsx_self_close_tag",
            "named": true
          },
          {
            "type": "jsx_tag",
            "named": true
          },
          {
            "type": "match_exp",
            "named": true
          },
          {
            "type": "mod_var",
            "named": true
          },
          {
            "type": "parenthesized_expression",
            "named": true
          },
          {
            "type": "prop_expr",
            "named": true
          },
          {
            "type": "range_expression",
            "named": true
          },
          {
            "type": "record",
            "named": true
          },
          {
            "type": "regex_literal",
            "named": true
          },
          {
            "type": "self",
            "named": true
          },
          {
            "type": "string_literal",
            "named": true
          },
          {
            "type": "tag",
            "named": true
          },
          {
            "type": "tuple_expression",
            "named": true
          },
          {
            "type": "unary_expression",
            "named": true
          }
        ]
      },
      "consequence": {
        "multiple": false,
        "required": true,
        "types": [
          {
            "type": "block",
            "named": true
          }
        ]
      }
    },
    "children": {
      "multiple": false,
      "required": true,
      "types": [
        {
          "type": "if",
          "named": true
        }
      ]
    }
  },
  {
    "type": "index_expr",
    "named": true,
    "fields": {},
    "children": {
      "multiple": true,
      "required": true,
      "types": [
        {
          "type": "anon_fndef",
          "named": true
        },
        {
          "type": "array_expression",
          "named": true
        },
        {
          "type": "binary_expression",
          "named": true
        },
        {
          "type": "block",
          "named": true
        },
        {
          "type": "bool_literal",
          "named": true
        },
        {
          "type": "call_expression",
          "named": true
        },
        {
          "type": "compound_assignment_expression",
          "named": true
        },
        {
          "type": "eta_ident",
          "named": true
        },
        {
          "type": "float_literal",
          "named": true
        },
        {
          "type": "fn_placeholder_ident",
          "named": true
        },
        {
          "type": "ident",
          "named": true
        },
        {
          "type": "if_expression",
          "named": true
        },
        {
          "type": "ignored_ident",
          "named": true
        },
        {
          "type": "index_expr",
          "named": true
        },
        {
          "type": "int_literal",
          "named": true
        },
        {
          "type": "jsx_self_close_tag",
          "named": true
        },
        {
          "type": "jsx_tag",
          "named": true
        },
        {
          "type": "match_exp",
          "named": true
        },
        {
          "type": "mod_var",
          "named": true
        },
        {
          "type": "parenthesized_expression",
          "named": true
        },
        {
          "type": "prop_expr",
          "named": true
        },
        {
          "type": "range_expression",
          "named": true
        },
        {
          "type": "record",
          "named": true
        },
        {
          "type": "regex_literal",
          "named": true
        },
        {
          "type": "self",
          "named": true
        },
        {
          "type": "string_literal",
          "named": true
        },
        {
          "type": "tag",
          "named": true
        },
        {
          "type": "tuple_expression",
          "named": true
        },
        {
          "type": "unary_expression",
          "named": true
        }
      ]
    }
  },
  {
    "type": "jsx_closing_element",
    "named": true,
    "fields": {},
    "children": {
      "multiple": false,
      "required": false,
      "types": [
        {
          "type": "jsx_element_base_ident",
          "named": true
        },
        {
          "type": "jsx_element_mod_ident",
          "named": true
        }
      ]
    }
  },
  {
    "type": "jsx_element_mod_ident",
    "named": true,
    "fields": {}
  },
  {
    "type": "jsx_inner_expr",
    "named": true,
    "fields": {},
    "children": {
      "multiple": false,
      "required": true,
      "types": [
        {
          "type": "anon_fndef",
          "named": true
        },
        {
          "type": "array_expression",
          "named": true
        },
        {
          "type": "binary_expression",
          "named": true
        },
        {
          "type": "block",
          "named": true
        },
        {
          "type": "bool_literal",
          "named": true
        },
        {
          "type": "call_expression",
          "named": true
        },
        {
          "type": "compound_assignment_expression",
          "named": true
        },
        {
          "type": "eta_ident",
          "named": true
        },
        {
          "type": "float_literal",
          "named": true
        },
        {
          "type": "fn_placeholder_ident",
          "named": true
        },
        {
          "type": "ident",
          "named": true
        },
        {
          "type": "if_expression",
          "named": true
        },
        {
          "type": "ignored_ident",
          "named": true
        },
        {
          "type": "index_expr",
          "named": true
        },
        {
          "type": "int_literal",
          "named": true
        },
        {
          "type": "jsx_self_close_tag",
          "named": true
        },
        {
          "type": "jsx_tag",
          "named": true
        },
        {
          "type": "match_exp",
          "named": true
        },
        {
          "type": "mod_var",
          "named": true
        },
        {
          "type": "parenthesized_expression",
          "named": true
        },
        {
          "type": "prop_expr",
          "named": true
        },
        {
          "type": "range_expression",
          "named": true
        },
        {
          "type": "record",
          "named": true
        },
        {
          "type": "regex_literal",
          "named": true
        },
        {
          "type": "self",
          "named": true
        },
        {
          "type": "string_literal",
          "named": true
        },
        {
          "type": "tag",
          "named": true
        },
        {
          "type": "tuple_expression",
          "named": true
        },
        {
          "type": "unary_expression",
          "named": true
        }
      ]
    }
  },
  {
    "type": "jsx_opening_element",
    "named": true,
    "fields": {},
    "children": {
      "multiple": true,
      "required": false,
      "types": [
        {
          "type": "jsx_element_base_ident",
          "named": true
        },
        {
          "type": "jsx_element_mod_ident",
          "named": true
        },
        {
          "type": "jsx_prop",
          "named": true
        }
      ]
    }
  },
  {
    "type": "jsx_prop",
    "named": true,
    "fields": {},
    "children": {
      "multiple": true,
      "required": true,
      "types": [
        {
          "type": "anon_fndef",
          "named": true
        },
        {
          "type": "array_expression",
          "named": true
        },
        {
          "type": "binary_expression",
          "named": true
        },
        {
          "type": "block",
          "named": true
        },
        {
          "type": "bool_literal",
          "named": true
        },
        {
          "type": "call_expression",
          "named": true
        },
        {
          "type": "compound_assignment_expression",
          "named": true
        },
        {
          "type": "eta_ident",
          "named": true
        },
        {
          "type": "float_literal",
          "named": true
        },
        {
          "type": "fn_placeholder_ident",
          "named": true
        },
        {
          "type": "ident",
          "named": true
        },
        {
          "type": "if_expression",
          "named": true
        },
        {
          "type": "ignored_ident",
          "named": true
        },
        {
          "type": "index_expr",
          "named": true
        },
        {
          "type": "int_literal",
          "named": true
        },
        {
          "type": "jsx_prop_ident",
          "named": true
        },
        {
          "type": "jsx_self_close_tag",
          "named": true
        },
        {
          "type": "jsx_tag",
          "named": true
        },
        {
          "type": "match_exp",
          "named": true
        },
        {
          "type": "mod_var",
          "named": true
        },
        {
          "type": "parenthesized_expression",
          "named": true
        },
        {
          "type": "prop_expr",
          "named": true
        },
        {
          "type": "range_expression",
          "named": true
        },
        {
          "type": "record",
          "named": true
        },
        {
          "type": "regex_literal",
          "named": true
        },
        {
          "type": "self",
          "named": true
        },
        {
          "type": "string_literal",
          "named": true
        },
        {
          "type": "tag",
          "named": true
        },
        {
          "type": "tuple_expression",
          "named": true
        },
        {
          "type": "unary_expression",
          "named": true
        }
      ]
    }
  },
  {
    "type": "jsx_prop_ident",
    "named": true,
    "fields": {}
  },
  {
    "type": "jsx_self_close_tag",
    "named": true,
    "fields": {},
    "children": {
      "multiple": true,
      "required": true,
      "types": [
        {
          "type": "jsx_element_base_ident",
          "named": true
        },
        {
          "type": "jsx_element_mod_ident",
          "named": true
        },
        {
          "type": "jsx_prop",
          "named": true
        }
      ]
    }
  },
  {
    "type": "jsx_tag",
    "named": true,
    "fields": {},
    "children": {
      "multiple": true,
      "required": true,
      "types": [
        {
          "type": "jsx_closing_element",
          "named": true
        },
        {
          "type": "jsx_inner_expr",
          "named": true
        },
        {
          "type": "jsx_opening_element",
          "named": true
        },
        {
          "type": "jsx_self_close_tag",
          "named": true
        },
        {
          "type": "jsx_tag",
          "named": true
        }
      ]
    }
  },
  {
    "type": "match_branch",
    "named": true,
    "fields": {},
    "children": {
      "multiple": true,
      "required": true,
      "types": [
        {
          "type": "anon_fndef",
          "named": true
        },
        {
          "type": "array_destruct",
          "named": true
        },
        {
          "type": "array_expression",
          "named": true
        },
        {
          "type": "binary_expression",
          "named": true
        },
        {
          "type": "block",
          "named": true
        },
        {
          "type": "bool_literal",
          "named": true
        },
        {
          "type": "call_expression",
          "named": true
        },
        {
          "type": "compound_assignment_expression",
          "named": true
        },
        {
          "type": "eta_ident",
          "named": true
        },
        {
          "type": "float_literal",
          "named": true
        },
        {
          "type": "fn_placeholder_ident",
          "named": true
        },
        {
          "type": "ident",
          "named": true
        },
        {
          "type": "if_expression",
          "named": true
        },
        {
          "type": "ignored_ident",
          "named": true
        },
        {
          "type": "index_expr",
          "named": true
        },
        {
          "type": "int_literal",
          "named": true
        },
        {
          "type": "jsx_self_close_tag",
          "named": true
        },
        {
          "type": "jsx_tag",
          "named": true
        },
        {
          "type": "match_exp",
          "named": true
        },
        {
          "type": "mod_var",
          "named": true
        },
        {
          "type": "parenthesized_expression",
          "named": true
        },
        {
          "type": "prop_expr",
          "named": true
        },
        {
          "type": "range_expression",
          "named": true
        },
        {
          "type": "record",
          "named": true
        },
        {
          "type": "record_destruct",
          "named": true
        },
        {
          "type": "regex_literal",
          "named": true
        },
        {
          "type": "self",
          "named": true
        },
        {
          "type": "string_literal",
          "named": true
        },
        {
          "type": "tag",
          "named": true
        },
        {
          "type": "tag_destruct",
          "named": true
        },
        {
          "type": "tuple_destruct",
          "named": true
        },
        {
          "type": "tuple_expression",
          "named": true
        },
        {
          "type": "unary_expression",
          "named": true
        }
      ]
    }
  },
  {
    "type": "match_exp",
    "named": true,
    "fields": {},
    "children": {
      "multiple": true,
      "required": true,
      "types": [
        {
          "type": "anon_fndef",
          "named": true
        },
        {
          "type": "array_expression",
          "named": true
        },
        {
          "type": "binary_expression",
          "named": true
        },
        {
          "type": "block",
          "named": true
        },
        {
          "type": "bool_literal",
          "named": true
        },
        {
          "type": "call_expression",
          "named": true
        },
        {
          "type": "compound_assignment_expression",
          "named": true
        },
        {
          "type": "eta_ident",
          "named": true
        },
        {
          "type": "float_literal",
          "named": true
        },
        {
          "type": "fn_placeholder_ident",
          "named": true
        },
        {
          "type": "ident",
          "named": true
        },
        {
          "type": "if_expression",
          "named": true
        },
        {
          "type": "ignored_ident",
          "named": true
        },
        {
          "type": "index_expr",
          "named": true
        },
        {
          "type": "int_literal",
          "named": true
        },
        {
          "type": "jsx_self_close_tag",
          "named": true
        },
        {
          "type": "jsx_tag",
          "named": true
        },
        {
          "type": "match",
          "named": true
        },
        {
          "type": "match_branch",
          "named": true
        },
        {
          "type": "match_exp",
          "named": true
        },
        {
          "type": "mod_var",
          "named": true
        },
        {
          "type": "parenthesized_expression",
          "named": true
        },
        {
          "type": "prop_expr",
          "named": true
        },
        {
          "type": "range_expression",
          "named": true
        },
        {
          "type": "record",
          "named": true
        },
        {
          "type": "regex_literal",
          "named": true
        },
        {
          "type": "self",
          "named": true
        },
        {
          "type": "string_literal",
          "named": true
        },
        {
          "type": "tag",
          "named": true
        },
        {
          "type": "tuple_expression",
          "named": true
        },
        {
          "type": "unary_expression",
          "named": true
        }
      ]
    }
  },
  {
    "type": "mod_ident",
    "named": true,
    "fields": {}
  },
  {
    "type": "mod_statement",
    "named": true,
    "fields": {},
    "children": {
      "multiple": true,
      "required": true,
      "types": [
        {
          "type": "comp_statement",
          "named": true
        },
        {
          "type": "for_loop",
          "named": true
        },
        {
          "type": "loop",
          "named": true
        },
        {
          "type": "mod",
          "named": true
        },
        {
          "type": "mod_ident",
          "named": true
        },
        {
          "type": "mod_statement",
          "named": true
        },
        {
          "type": "named_fndef",
          "named": true
        },
        {
          "type": "pragma",
          "named": true
        },
        {
          "type": "typedef",
          "named": true
        },
        {
          "type": "var_definition",
          "named": true
        },
        {
          "type": "while",
          "named": true
        }
      ]
    }
  },
  {
    "type": "mod_var",
    "named": true,
    "fields": {},
    "children": {
      "multiple": true,
      "required": true,
      "types": [
        {
          "type": "eta_ident",
          "named": true
        },
        {
          "type": "fn_placeholder_ident",
          "named": true
        },
        {
          "type": "ident",
          "named": true
        },
        {
          "type": "ignored_ident",
          "named": true
        },
        {
          "type": "mod_ident",
          "named": true
        }
      ]
    }
  },
  {
    "type": "named_fndef",
    "named": true,
    "fields": {
      "fn_name": {
        "multiple": false,
        "required": true,
        "types": [
          {
            "type": "fn_name",
            "named": true
          }
        ]
      }
    },
    "children": {
      "multiple": true,
      "required": true,
      "types": [
        {
          "type": "block",
          "named": true
        },
        {
          "type": "fn",
          "named": true
        },
        {
          "type": "parameter_list",
          "named": true
        },
        {
          "type": "typ",
          "named": true
        },
        {
          "type": "typ_fn",
          "named": true
        },
        {
          "type": "typ_tuple",
          "named": true
        },
        {
          "type": "type_arguments",
          "named": true
        }
      ]
    }
  },
  {
    "type": "parameter",
    "named": true,
    "fields": {},
    "children": {
      "multiple": true,
      "required": false,
      "types": [
        {
          "type": "anon_fndef",
          "named": true
        },
        {
          "type": "array_expression",
          "named": true
        },
        {
          "type": "binary_expression",
          "named": true
        },
        {
          "type": "bool_literal",
          "named": true
        },
        {
          "type": "call_expression",
          "named": true
        },
        {
          "type": "compound_assignment_expression",
          "named": true
        },
        {
          "type": "eta_ident",
          "named": true
        },
        {
          "type": "float_literal",
          "named": true
        },
        {
          "type": "fn_placeholder_ident",
          "named": true
        },
        {
          "type": "ident",
          "named": true
        },
        {
          "type": "if_expression",
          "named": true
        },
        {
          "type": "ignored_ident",
          "named": true
        },
        {
          "type": "index_expr",
          "named": true
        },
        {
          "type": "int_literal",
          "named": true
        },
        {
          "type": "jsx_self_close_tag",
          "named": true
        },
        {
          "type": "jsx_tag",
          "named": true
        },
        {
          "type": "match_exp",
          "named": true
        },
        {
          "type": "mod_var",
          "named": true
        },
        {
          "type": "parenthesized_expression",
          "named": true
        },
        {
          "type": "prop_expr",
          "named": true
        },
        {
          "type": "range_expression",
          "named": true
        },
        {
          "type": "record",
          "named": true
        },
        {
          "type": "regex_literal",
          "named": true
        },
        {
          "type": "self",
          "named": true
        },
        {
          "type": "string_literal",
          "named": true
        },
        {
          "type": "tag",
          "named": true
        },
        {
          "type": "tuple_expression",
          "named": true
        },
        {
          "type": "typ",
          "named": true
        },
        {
          "type": "typ_fn",
          "named": true
        },
        {
          "type": "typ_tuple",
          "named": true
        },
        {
          "type": "unary_expression",
          "named": true
        }
      ]
    }
  },
  {
    "type": "parameter_list",
    "named": true,
    "fields": {},
    "children": {
      "multiple": true,
      "required": false,
      "types": [
        {
          "type": "parameter",
          "named": true
        }
      ]
    }
  },
  {
    "type": "parenthesized_expression",
    "named": true,
    "fields": {},
    "children": {
      "multiple": false,
      "required": true,
      "types": [
        {
          "type": "anon_fndef",
          "named": true
        },
        {
          "type": "array_expression",
          "named": true
        },
        {
          "type": "binary_expression",
          "named": true
        },
        {
          "type": "block",
          "named": true
        },
        {
          "type": "bool_literal",
          "named": true
        },
        {
          "type": "call_expression",
          "named": true
        },
        {
          "type": "compound_assignment_expression",
          "named": true
        },
        {
          "type": "eta_ident",
          "named": true
        },
        {
          "type": "float_literal",
          "named": true
        },
        {
          "type": "fn_placeholder_ident",
          "named": true
        },
        {
          "type": "ident",
          "named": true
        },
        {
          "type": "if_expression",
          "named": true
        },
        {
          "type": "ignored_ident",
          "named": true
        },
        {
          "type": "index_expr",
          "named": true
        },
        {
          "type": "int_literal",
          "named": true
        },
        {
          "type": "jsx_self_close_tag",
          "named": true
        },
        {
          "type": "jsx_tag",
          "named": true
        },
        {
          "type": "match_exp",
          "named": true
        },
        {
          "type": "mod_var",
          "named": true
        },
        {
          "type": "parenthesized_expression",
          "named": true
        },
        {
          "type": "prop_expr",
          "named": true
        },
        {
          "type": "range_expression",
          "named": true
        },
        {
          "type": "record",
          "named": true
        },
        {
          "type": "regex_literal",
          "named": true
        },
        {
          "type": "self",
          "named": true
        },
        {
          "type": "string_literal",
          "named": true
        },
        {
          "type": "tag",
          "named": true
        },
        {
          "type": "tuple_expression",
          "named": true
        },
        {
          "type": "unary_expression",
          "named": true
        }
      ]
    }
  },
  {
    "type": "pragma",
    "named": true,
    "fields": {},
    "children": {
      "multiple": true,
      "required": true,
      "types": [
        {
          "type": "eta_ident",
          "named": true
        },
        {
          "type": "fn_placeholder_ident",
          "named": true
        },
        {
          "type": "ident",
          "named": true
        },
        {
          "type": "ignored_ident",
          "named": true
        },
        {
          "type": "pragma_literal",
          "named": true
        },
        {
          "type": "typ",
          "named": true
        },
        {
          "type": "typ_fn",
          "named": true
        },
        {
          "type": "typ_tuple",
          "named": true
        }
      ]
    }
  },
  {
    "type": "prop_expr",
    "named": true,
    "fields": {
      "property": {
        "multiple": false,
        "required": true,
        "types": [
          {
            "type": "eta_ident",
            "named": true
          },
          {
            "type": "fn_placeholder_ident",
            "named": true
          },
          {
            "type": "ident",
            "named": true
          },
          {
            "type": "ignored_ident",
            "named": true
          }
        ]
      }
    },
    "children": {
      "multiple": false,
      "required": true,
      "types": [
        {
          "type": "array_expression",
          "named": true
        },
        {
          "type": "call_expression",
          "named": true
        },
        {
          "type": "eta_ident",
          "named": true
        },
        {
          "type": "fn_placeholder_ident",
          "named": true
        },
        {
          "type": "ident",
          "named": true
        },
        {
          "type": "ignored_ident",
          "named": true
        },
        {
          "type": "index_expr",
          "named": true
        },
        {
          "type": "mod_var",
          "named": true
        },
        {
          "type": "parenthesized_expression",
          "named": true
        },
        {
          "type": "prop_expr",
          "named": true
        },
        {
          "type": "self",
          "named": true
        },
        {
          "type": "tag",
          "named": true
        }
      ]
    }
  },
  {
    "type": "range_expression",
    "named": true,
    "fields": {},
    "children": {
      "multiple": true,
      "required": true,
      "types": [
        {
          "type": "anon_fndef",
          "named": true
        },
        {
          "type": "array_expression",
          "named": true
        },
        {
          "type": "binary_expression",
          "named": true
        },
        {
          "type": "block",
          "named": true
        },
        {
          "type": "bool_literal",
          "named": true
        },
        {
          "type": "call_expression",
          "named": true
        },
        {
          "type": "compound_assignment_expression",
          "named": true
        },
        {
          "type": "eta_ident",
          "named": true
        },
        {
          "type": "float_literal",
          "named": true
        },
        {
          "type": "fn_placeholder_ident",
          "named": true
        },
        {
          "type": "ident",
          "named": true
        },
        {
          "type": "if_expression",
          "named": true
        },
        {
          "type": "ignored_ident",
          "named": true
        },
        {
          "type": "index_expr",
          "named": true
        },
        {
          "type": "int_literal",
          "named": true
        },
        {
          "type": "jsx_self_close_tag",
          "named": true
        },
        {
          "type": "jsx_tag",
          "named": true
        },
        {
          "type": "match_exp",
          "named": true
        },
        {
          "type": "mod_var",
          "named": true
        },
        {
          "type": "parenthesized_expression",
          "named": true
        },
        {
          "type": "prop_expr",
          "named": true
        },
        {
          "type": "range_expression",
          "named": true
        },
        {
          "type": "range_literal",
          "named": true
        },
        {
          "type": "record",
          "named": true
        },
        {
          "type": "regex_literal",
          "named": true
        },
        {
          "type": "self",
          "named": true
        },
        {
          "type": "string_literal",
          "named": true
        },
        {
          "type": "tag",
          "named": true
        },
        {
          "type": "tuple_expression",
          "named": true
        },
        {
          "type": "unary_expression",
          "named": true
        }
      ]
    }
  },
  {
    "type": "record",
    "named": true,
    "fields": {},
    "children": {
      "multiple": true,
      "required": false,
      "types": [
        {
          "type": "field",
          "named": true
        },
        {
          "type": "field_pun",
          "named": true
        },
        {
          "type": "mod_ident",
          "named": true
        },
        {
          "type": "record_spread",
          "named": true
        }
      ]
    }
  },
  {
    "type": "record_destruct",
    "named": true,
    "fields": {},
    "children": {
      "multiple": true,
      "required": false,
      "types": [
        {
          "type": "eta_ident",
          "named": true
        },
        {
          "type": "fn_placeholder_ident",
          "named": true
        },
        {
          "type": "ident",
          "named": true
        },
        {
          "type": "ignored_ident",
          "named": true
        }
      ]
    }
  },
  {
    "type": "record_spread",
    "named": true,
    "fields": {},
    "children": {
      "multiple": false,
      "required": true,
      "types": [
        {
          "type": "eta_ident",
          "named": true
        },
        {
          "type": "fn_placeholder_ident",
          "named": true
        },
        {
          "type": "ident",
          "named": true
        },
        {
          "type": "ignored_ident",
          "named": true
        }
      ]
    }
  },
  {
    "type": "return_statement",
    "named": true,
    "fields": {},
    "children": {
      "multiple": true,
      "required": true,
      "types": [
        {
          "type": "anon_fndef",
          "named": true
        },
        {
          "type": "array_expression",
          "named": true
        },
        {
          "type": "binary_expression",
          "named": true
        },
        {
          "type": "block",
          "named": true
        },
        {
          "type": "bool_literal",
          "named": true
        },
        {
          "type": "call_expression",
          "named": true
        },
        {
          "type": "compound_assignment_expression",
          "named": true
        },
        {
          "type": "eta_ident",
          "named": true
        },
        {
          "type": "float_literal",
          "named": true
        },
        {
          "type": "fn_placeholder_ident",
          "named": true
        },
        {
          "type": "ident",
          "named": true
        },
        {
          "type": "if_expression",
          "named": true
        },
        {
          "type": "ignored_ident",
          "named": true
        },
        {
          "type": "index_expr",
          "named": true
        },
        {
          "type": "int_literal",
          "named": true
        },
        {
          "type": "jsx_self_close_tag",
          "named": true
        },
        {
          "type": "jsx_tag",
          "named": true
        },
        {
          "type": "match_exp",
          "named": true
        },
        {
          "type": "mod_var",
          "named": true
        },
        {
          "type": "parenthesized_expression",
          "named": true
        },
        {
          "type": "prop_expr",
          "named": true
        },
        {
          "type": "range_expression",
          "named": true
        },
        {
          "type": "record",
          "named": true
        },
        {
          "type": "regex_literal",
          "named": true
        },
        {
          "type": "return",
          "named": true
        },
        {
          "type": "self",
          "named": true
        },
        {
          "type": "string_literal",
          "named": true
        },
        {
          "type": "tag",
          "named": true
        },
        {
          "type": "tuple_expression",
          "named": true
        },
        {
          "type": "unary_expression",
          "named": true
        }
      ]
    }
  },
  {
    "type": "source_file",
    "named": true,
    "fields": {},
    "children": {
      "multiple": true,
      "required": false,
      "types": [
        {
          "type": "comp_statement",
          "named": true
        },
        {
          "type": "for_loop",
          "named": true
        },
        {
          "type": "loop",
          "named": true
        },
        {
          "type": "mod_statement",
          "named": true
        },
        {
          "type": "named_fndef",
          "named": true
        },
        {
          "type": "pragma",
          "named": true
        },
        {
          "type": "typedef",
          "named": true
        },
        {
          "type": "var_definition",
          "named": true
        },
        {
          "type": "while",
          "named": true
        }
      ]
    }
  },
  {
    "type": "tag",
    "named": true,
    "fields": {},
    "children": {
      "multiple": true,
      "required": true,
      "types": [
        {
          "type": "anon_fndef",
          "named": true
        },
        {
          "type": "array_expression",
          "named": true
        },
        {
          "type": "binary_expression",
          "named": true
        },
        {
          "type": "block",
          "named": true
        },
        {
          "type": "bool_literal",
          "named": true
        },
        {
          "type": "call_expression",
          "named": true
        },
        {
          "type": "compound_assignment_expression",
          "named": true
        },
        {
          "type": "eta_ident",
          "named": true
        },
        {
          "type": "float_literal",
          "named": true
        },
        {
          "type": "fn_placeholder_ident",
          "named": true
        },
        {
          "type": "ident",
          "named": true
        },
        {
          "type": "if_expression",
          "named": true
        },
        {
          "type": "ignored_ident",
          "named": true
        },
        {
          "type": "index_expr",
          "named": true
        },
        {
          "type": "int_literal",
          "named": true
        },
        {
          "type": "jsx_self_close_tag",
          "named": true
        },
        {
          "type": "jsx_tag",
          "named": true
        },
        {
          "type": "match_exp",
          "named": true
        },
        {
          "type": "mod_ident",
          "named": true
        },
        {
          "type": "mod_var",
          "named": true
        },
        {
          "type": "parenthesized_expression",
          "named": true
        },
        {
          "type": "prop_expr",
          "named": true
        },
        {
          "type": "range_expression",
          "named": true
        },
        {
          "type": "record",
          "named": true
        },
        {
          "type": "regex_literal",
          "named": true
        },
        {
          "type": "self",
          "named": true
        },
        {
          "type": "string_literal",
          "named": true
        },
        {
          "type": "tag",
          "named": true
        },
        {
          "type": "tag_ident",
          "named": true
        },
        {
          "type": "tuple_expression",
          "named": true
        },
        {
          "type": "unary_expression",
          "named": true
        }
      ]
    }
  },
  {
    "type": "tag_destruct",
    "named": true,
    "fields": {},
    "children": {
      "multiple": true,
      "required": true,
      "types": [
        {
          "type": "array_destruct",
          "named": true
        },
        {
          "type": "eta_ident",
          "named": true
        },
        {
          "type": "fn_placeholder_ident",
          "named": true
        },
        {
          "type": "ident",
          "named": true
        },
        {
          "type": "ignored_ident",
          "named": true
        },
        {
          "type": "mod_ident",
          "named": true
        },
        {
          "type": "record_destruct",
          "named": true
        },
        {
          "type": "tag_ident",
          "named": true
        },
        {
          "type": "tuple_destruct",
          "named": true
        }
      ]
    }
  },
  {
    "type": "tag_typ_params",
    "named": true,
    "fields": {},
    "children": {
      "multiple": true,
      "required": true,
      "types": [
        {
          "type": "typ",
          "named": true
        },
        {
          "type": "typ_fn",
          "named": true
        },
        {
          "type": "typ_tuple",
          "named": true
        }
      ]
    }
  },
  {
    "type": "tuple_destruct",
    "named": true,
    "fields": {},
    "children": {
      "multiple": true,
      "required": false,
      "types": [
        {
          "type": "array_destruct",
          "named": true
        },
        {
          "type": "eta_ident",
          "named": true
        },
        {
          "type": "fn_placeholder_ident",
          "named": true
        },
        {
          "type": "ident",
          "named": true
        },
        {
          "type": "ignored_ident",
          "named": true
        },
        {
          "type": "record_destruct",
          "named": true
        },
        {
          "type": "tuple_destruct",
          "named": true
        }
      ]
    }
  },
  {
    "type": "tuple_expression",
    "named": true,
    "fields": {},
    "children": {
      "multiple": true,
      "required": false,
      "types": [
        {
          "type": "anon_fndef",
          "named": true
        },
        {
          "type": "array_expression",
          "named": true
        },
        {
          "type": "binary_expression",
          "named": true
        },
        {
          "type": "block",
          "named": true
        },
        {
          "type": "bool_literal",
          "named": true
        },
        {
          "type": "call_expression",
          "named": true
        },
        {
          "type": "compound_assignment_expression",
          "named": true
        },
        {
          "type": "eta_ident",
          "named": true
        },
        {
          "type": "float_literal",
          "named": true
        },
        {
          "type": "fn_placeholder_ident",
          "named": true
        },
        {
          "type": "ident",
          "named": true
        },
        {
          "type": "if_expression",
          "named": true
        },
        {
          "type": "ignored_ident",
          "named": true
        },
        {
          "type": "index_expr",
          "named": true
        },
        {
          "type": "int_literal",
          "named": true
        },
        {
          "type": "jsx_self_close_tag",
          "named": true
        },
        {
          "type": "jsx_tag",
          "named": true
        },
        {
          "type": "match_exp",
          "named": true
        },
        {
          "type": "mod_var",
          "named": true
        },
        {
          "type": "parenthesized_expression",
          "named": true
        },
        {
          "type": "prop_expr",
          "named": true
        },
        {
          "type": "range_expression",
          "named": true
        },
        {
          "type": "record",
          "named": true
        },
        {
          "type": "regex_literal",
          "named": true
        },
        {
          "type": "self",
          "named": true
        },
        {
          "type": "string_literal",
          "named": true
        },
        {
          "type": "tag",
          "named": true
        },
        {
          "type": "tuple_expression",
          "named": true
        },
        {
          "type": "unary_expression",
          "named": true
        }
      ]
    }
  },
  {
    "type": "typ",
    "named": true,
    "fields": {},
    "children": {
      "multiple": true,
      "required": true,
      "types": [
        {
          "type": "mod_ident",
          "named": true
        },
        {
          "type": "typ_params",
          "named": true
        }
      ]
    }
  },
  {
    "type": "typ_fn",
    "named": true,
    "fields": {},
    "children": {
      "multiple": true,
      "required": true,
      "types": [
        {
          "type": "fn",
          "named": true
        },
        {
          "type": "parameter_list",
          "named": true
        },
        {
          "type": "typ",
          "named": true
        },
        {
          "type": "typ_fn",
          "named": true
        },
        {
          "type": "typ_params",
          "named": true
        },
        {
          "type": "typ_tuple",
          "named": true
        }
      ]
    }
  },
  {
    "type": "typ_params",
    "named": true,
    "fields": {},
    "children": {
      "multiple": true,
      "required": true,
      "types": [
        {
          "type": "typ",
          "named": true
        },
        {
          "type": "typ_fn",
          "named": true
        },
        {
          "type": "typ_tuple",
          "named": true
        }
      ]
    }
  },
  {
    "type": "typ_tuple",
    "named": true,
    "fields": {},
    "children": {
      "multiple": true,
      "required": true,
      "types": [
        {
          "type": "typ",
          "named": true
        },
        {
          "type": "typ_fn",
          "named": true
        },
        {
          "type": "typ_tuple",
          "named": true
        }
      ]
    }
  },
  {
    "type": "type",
    "named": true,
    "fields": {}
  },
  {
    "type": "type_arguments",
    "named": true,
    "fields": {},
    "children": {
      "multiple": true,
      "required": true,
      "types": [
        {
          "type": "mod_ident",
          "named": true
        }
      ]
    }
  },
  {
    "type": "typedef",
    "named": true,
    "fields": {},
    "children": {
      "multiple": true,
      "required": true,
      "types": [
        {
          "type": "tag_ident",
          "named": true
        },
        {
          "type": "tag_typ_params",
          "named": true
        },
        {
          "type": "type",
          "named": true
        },
        {
          "type": "typedef_field",
          "named": true
        },
        {
          "type": "typedef_params",
          "named": true
        }
      ]
    }
  },
  {
    "type": "typedef_field",
    "named": true,
    "fields": {},
    "children": {
      "multiple": true,
      "required": true,
      "types": [
        {
          "type": "field_ident",
          "named": true
        },
        {
          "type": "typ",
          "named": true
        },
        {
          "type": "typ_fn",
          "named": true
        },
        {
          "type": "typ_tuple",
          "named": true
        }
      ]
    }
  },
  {
    "type": "typedef_params",
    "named": true,
    "fields": {},
    "children": {
      "multiple": true,
      "required": true,
      "types": [
        {
          "type": "mod_ident",
          "named": true
        }
      ]
    }
  },
  {
    "type": "unary_expression",
    "named": true,
    "fields": {},
    "children": {
      "multiple": false,
      "required": true,
      "types": [
        {
          "type": "anon_fndef",
          "named": true
        },
        {
          "type": "array_expression",
          "named": true
        },
        {
          "type": "binary_expression",
          "named": true
        },
        {
          "type": "block",
          "named": true
        },
        {
          "type": "bool_literal",
          "named": true
        },
        {
          "type": "call_expression",
          "named": true
        },
        {
          "type": "compound_assignment_expression",
          "named": true
        },
        {
          "type": "eta_ident",
          "named": true
        },
        {
          "type": "float_literal",
          "named": true
        },
        {
          "type": "fn_placeholder_ident",
          "named": true
        },
        {
          "type": "ident",
          "named": true
        },
        {
          "type": "if_expression",
          "named": true
        },
        {
          "type": "ignored_ident",
          "named": true
        },
        {
          "type": "index_expr",
          "named": true
        },
        {
          "type": "int_literal",
          "named": true
        },
        {
          "type": "jsx_self_close_tag",
          "named": true
        },
        {
          "type": "jsx_tag",
          "named": true
        },
        {
          "type": "match_exp",
          "named": true
        },
        {
          "type": "mod_var",
          "named": true
        },
        {
          "type": "parenthesized_expression",
          "named": true
        },
        {
          "type": "prop_expr",
          "named": true
        },
        {
          "type": "range_expression",
          "named": true
        },
        {
          "type": "record",
          "named": true
        },
        {
          "type": "regex_literal",
          "named": true
        },
        {
          "type": "self",
          "named": true
        },
        {
          "type": "string_literal",
          "named": true
        },
        {
          "type": "tag",
          "named": true
        },
        {
          "type": "tuple_expression",
          "named": true
        },
        {
          "type": "unary_expression",
          "named": true
        }
      ]
    }
  },
  {
    "type": "var_definition",
    "named": true,
    "fields": {},
    "children": {
      "multiple": true,
      "required": true,
      "types": [
        {
          "type": "anon_fndef",
          "named": true
        },
        {
          "type": "array_destruct",
          "named": true
        },
        {
          "type": "array_expression",
          "named": true
        },
        {
          "type": "binary_expression",
          "named": true
        },
        {
          "type": "block",
          "named": true
        },
        {
          "type": "bool_literal",
          "named": true
        },
        {
          "type": "call_expression",
          "named": true
        },
        {
          "type": "compound_assignment_expression",
          "named": true
        },
        {
          "type": "eta_ident",
          "named": true
        },
        {
          "type": "float_literal",
          "named": true
        },
        {
          "type": "fn_placeholder_ident",
          "named": true
        },
        {
          "type": "ident",
          "named": true
        },
        {
          "type": "if_expression",
          "named": true
        },
        {
          "type": "ignored_ident",
          "named": true
        },
        {
          "type": "index_expr",
          "named": true
        },
        {
          "type": "int_literal",
          "named": true
        },
        {
          "type": "jsx_self_close_tag",
          "named": true
        },
        {
          "type": "jsx_tag",
          "named": true
        },
        {
          "type": "let",
          "named": true
        },
        {
          "type": "match_exp",
          "named": true
        },
        {
          "type": "mod_var",
          "named": true
        },
        {
          "type": "mut",
          "named": true
        },
        {
          "type": "parenthesized_expression",
          "named": true
        },
        {
          "type": "prop_expr",
          "named": true
        },
        {
          "type": "range_expression",
          "named": true
        },
        {
          "type": "record",
          "named": true
        },
        {
          "type": "record_destruct",
          "named": true
        },
        {
          "type": "regex_literal",
          "named": true
        },
        {
          "type": "self",
          "named": true
        },
        {
          "type": "string_literal",
          "named": true
        },
        {
          "type": "tag",
          "named": true
        },
        {
          "type": "tuple_destruct",
          "named": true
        },
        {
          "type": "tuple_expression",
          "named": true
        },
        {
          "type": "typ",
          "named": true
        },
        {
          "type": "typ_fn",
          "named": true
        },
        {
          "type": "typ_tuple",
          "named": true
        },
        {
          "type": "unary_expression",
          "named": true
        }
      ]
    }
  },
  {
    "type": "!",
    "named": false
  },
  {
    "type": "!=",
    "named": false
  },
  {
    "type": "#{",
    "named": false
  },
  {
    "type": "$=",
    "named": false
  },
  {
    "type": "%",
    "named": false
  },
  {
    "type": "%=",
    "named": false
  },
  {
    "type": "&",
    "named": false
  },
  {
    "type": "&&",
    "named": false
  },
  {
    "type": "&=",
    "named": false
  },
  {
    "type": "(",
    "named": false
  },
  {
    "type": "()",
    "named": false
  },
  {
    "type": ")",
    "named": false
  },
  {
    "type": "*",
    "named": false
  },
  {
    "type": "*.",
    "named": false
  },
  {
    "type": "*=",
    "named": false
  },
  {
    "type": "+",
    "named": false
  },
  {
    "type": "++",
    "named": false
  },
  {
    "type": "+.",
    "named": false
  },
  {
    "type": "+=",
    "named": false
  },
  {
    "type": ",",
    "named": false
  },
  {
    "type": "-",
    "named": false
  },
  {
    "type": "-.",
    "named": false
  },
  {
    "type": "-=",
    "named": false
  },
  {
    "type": "->",
    "named": false
  },
  {
    "type": ".",
    "named": false
  },
  {
    "type": ".(",
    "named": false
  },
  {
    "type": "..",
    "named": false
  },
  {
    "type": "...",
    "named": false
  },
  {
    "type": "..=",
    "named": false
  },
  {
    "type": "/",
    "named": false
  },
  {
    "type": "/.",
    "named": false
  },
  {
    "type": "/=",
    "named": false
  },
  {
    "type": "/>",
    "named": false
  },
  {
    "type": ":",
    "named": false
  },
  {
    "type": ";",
    "named": false
  },
  {
    "type": "<",
    "named": false
  },
  {
    "type": "</",
    "named": false
  },
  {
    "type": "</>",
    "named": false
  },
  {
    "type": "<<",
    "named": false
  },
  {
    "type": "<<=",
    "named": false
  },
  {
    "type": "<=",
    "named": false
  },
  {
    "type": "<>",
    "named": false
  },
  {
    "type": "=",
    "named": false
  },
  {
    "type": "==",
    "named": false
  },
  {
    "type": "=>",
    "named": false
  },
  {
    "type": ">",
    "named": false
  },
  {
    "type": ">=",
    "named": false
  },
  {
    "type": ">>",
    "named": false
  },
  {
    "type": ">>=",
    "named": false
  },
  {
    "type": "?",
    "named": false
  },
  {
    "type": "??",
    "named": false
  },
  {
    "type": "@",
    "named": false
  },
  {
    "type": "[",
    "named": false
  },
  {
    "type": "]",
    "named": false
  },
  {
    "type": "^",
    "named": false
  },
  {
    "type": "^=",
    "named": false
  },
  {
    "type": "_",
    "named": false
  },
  {
    "type": "break",
    "named": true
  },
  {
    "type": "comp",
    "named": true
  },
  {
    "type": "continue",
    "named": true
  },
  {
    "type": "else",
    "named": true
  },
  {
    "type": "enum",
    "named": false
  },
  {
    "type": "eta_ident",
    "named": true
  },
  {
    "type": "false",
    "named": false
  },
  {
    "type": "field_ident",
    "named": true
  },
  {
    "type": "float_literal",
    "named": true
  },
  {
    "type": "fn",
    "named": true
  },
  {
    "type": "fn_placeholder_ident",
    "named": true
  },
  {
    "type": "for",
    "named": true
  },
  {
    "type": "ident",
    "named": true
  },
  {
    "type": "if",
    "named": true
  },
  {
    "type": "ignored_ident",
    "named": true
  },
  {
    "type": "in",
    "named": true
  },
  {
    "type": "int_literal",
    "named": true
  },
  {
    "type": "jsx_element_base_ident",
    "named": true
  },
  {
    "type": "let",
    "named": true
  },
  {
    "type": "line_comment",
    "named": true
  },
  {
    "type": "loop",
    "named": true
  },
  {
    "type": "match",
    "named": true
  },
  {
    "type": "mod",
    "named": true
  },
  {
    "type": "mut",
    "named": true
  },
  {
    "type": "pragma_literal",
    "named": true
  },
  {
    "type": "range_literal",
    "named": true
  },
  {
    "type": "rec",
    "named": false
  },
  {
    "type": "regex_literal",
    "named": true
  },
  {
    "type": "return",
    "named": true
  },
  {
    "type": "self",
    "named": true
  },
  {
    "type": "string_literal",
    "named": true
  },
  {
    "type": "tag_ident",
    "named": true
  },
  {
    "type": "true",
    "named": false
  },
  {
    "type": "type",
    "named": false
  },
  {
    "type": "while",
    "named": true
  },
  {
    "type": "{",
    "named": false
  },
  {
    "type": "|",
    "named": false
  },
  {
    "type": "|=",
    "named": false
  },
  {
    "type": "||",
    "named": false
  },
  {
    "type": "}",
    "named": false
  }
]